{
    "/js/marketing/app.js": "/js/marketing/app.js",
    "/css/marketing/app.css": "/css/marketing/app.css",
    "/css/marketing/admin.css": "/css/marketing/admin.css",
    "/js/marketing/navbar.js": "/js/marketing/navbar.js",
    "/js/marketing/mailing-list-subscription.js": "/js/marketing/mailing-list-subscription.js",
    "/js/marketing/home.js": "/js/marketing/home.js",
    "/js/marketing/contact-us.js": "/js/marketing/contact-us.js",
    "/js/marketing/admin/legal-document.js": "/js/marketing/admin/legal-document.js",
    "/js/marketing/admin/faq.js": "/js/marketing/admin/faq.js",
    "/js/marketing/admin/article.js": "/js/marketing/admin/article.js"
}
