[{"id":3, "title":"WK", "created_at":"2018-08-31 01:22:26", "updated_at":"2018-08-31 01:22:26"},
  {"id":5, "title":"Box", "created_at":"2018-08-31 01:22:42", "updated_at":"2018-08-31 01:22:42"},
  {"id":6, "title":"CF", "created_at":"2018-08-31 01:22:47", "updated_at":"2018-08-31 01:22:47"},
  {"id":7, "title":"CI", "created_at":"2018-08-31 01:22:53", "updated_at":"2018-08-31 01:22:53"},
  {"id":8, "title":"CSF", "created_at":"2018-08-31 01:22:59", "updated_at":"2018-08-31 01:22:59"},
  {"id":9, "title":"CY", "created_at":"2018-08-31 01:23:06", "updated_at":"2018-08-31 01:23:06"},
  {"id":10, "title":"Day", "created_at":"2018-08-31 01:23:12", "updated_at":"2018-08-31 01:23:12"},
  {"id":11, "title":"DY", "created_at":"2018-08-31 01:23:18", "updated_at":"2018-08-31 01:23:18"},
  {"id":12, "title":"EA", "created_at":"2018-08-31 01:23:25", "updated_at":"2018-08-31 01:23:25"},
  {"id":13, "title":"GAL", "created_at":"2018-08-31 01:23:36", "updated_at":"2018-08-31 01:23:36"},
  {"id":14, "title":"Gallon", "created_at":"2018-08-31 01:23:43", "updated_at":"2018-08-31 01:23:43"},
  {"id":15, "title":"HR", "created_at":"2018-08-31 01:23:50", "updated_at":"2018-08-31 01:23:50"},
  {"id":16, "title":"LB", "created_at":"2018-08-31 01:23:55", "updated_at":"2018-08-31 01:23:55"},
  {"id":17, "title":"LF", "created_at":"2018-08-31 01:24:01", "updated_at":"2018-08-31 01:24:01"},
  {"id":18, "title":"LI", "created_at":"2018-08-31 01:24:06", "updated_at":"2018-08-31 01:24:06"},
  {"id":19, "title":"LS", "created_at":"2018-08-31 01:24:13", "updated_at":"2018-08-31 01:24:13"},
  {"id":20, "title":"MI", "created_at":"2018-08-31 01:24:21", "updated_at":"2018-08-31 01:24:21"},
  {"id":21, "title":"MSF", "created_at":"2018-08-31 01:24:31", "updated_at":"2018-08-31 01:24:31"},
  {"id":22, "title":"Pair", "created_at":"2018-08-31 01:24:37", "updated_at":"2018-08-31 01:24:37"},
  {"id":23, "title":"Purchase", "created_at":"2018-08-31 01:24:46", "updated_at":"2018-08-31 01:24:46"},
  {"id":24, "title":"SI", "created_at":"2018-08-31 01:24:52", "updated_at":"2018-08-31 01:24:52"},
  {"id":25, "title":"SF", "created_at":"2018-08-31 01:24:59", "updated_at":"2018-08-31 01:24:59"},
  {"id":26, "title":"SQ", "created_at":"2018-08-31 01:25:05", "updated_at":"2018-08-31 01:25:05"},
  {"id":27, "title":"ST", "created_at":"2018-08-31 01:25:10", "updated_at":"2018-08-31 01:25:10"},
  {"id":28, "title":"SY", "created_at":"2018-08-31 01:25:21", "updated_at":"2018-08-31 01:25:21"},
  {"id":29, "title":"TN", "created_at":"2018-08-31 01:25:33", "updated_at":"2018-08-31 01:25:33"},
  {"id":30, "title":"Ton", "created_at":"2018-08-31 01:25:40", "updated_at":"2018-08-31 01:25:40"},
  {"id":32, "title":"BF", "created_at":"2018-09-06 03:50:39", "updated_at":"2018-09-06 03:51:10"},
  {"id":35, "title":"%", "created_at":"2018-10-24 21:13:38", "updated_at":"2018-10-24 21:13:38"},
  {"id":36, "title":"Y/N", "created_at":"2018-10-24 21:15:02", "updated_at":"2018-10-24 21:15:02"},
  {"id":37, "title":"#", "created_at":"2018-10-24 21:19:56", "updated_at":"2018-10-24 21:19:56"},
  {"id":38, "title":"Size", "created_at":"2018-10-25 03:48:02", "updated_at":"2018-10-25 03:48:02"}]
